-- Merging decision tree log ---
manifest
ADDED from G:\Projects\Android\react-native_frame_work\frame1\android\app\src\main\AndroidManifest.xml:1:1-26:12
INJECTED from G:\Projects\Android\react-native_frame_work\frame1\android\app\src\main\AndroidManifest.xml:1:1-26:12
INJECTED from G:\Projects\Android\react-native_frame_work\frame1\android\app\src\main\AndroidManifest.xml:1:1-26:12
INJECTED from G:\Projects\Android\react-native_frame_work\frame1\android\app\src\main\AndroidManifest.xml:1:1-26:12
MERGED from [com.facebook.react:react-native:0.57.7] C:\Users\Narges\.gradle\caches\transforms-1\files-1.1\react-native-0.57.7.aar\82283e933d96cd97ecd25c44d5140753\AndroidManifest.xml:2:1-15:12
MERGED from [com.android.support:appcompat-v7:27.1.1] C:\Users\Narges\.gradle\caches\transforms-1\files-1.1\appcompat-v7-27.1.1.aar\608cbbffe669b67d1c91721c0a253cd1\AndroidManifest.xml:17:1-22:12
MERGED from [com.android.support:support-fragment:27.1.1] C:\Users\Narges\.gradle\caches\transforms-1\files-1.1\support-fragment-27.1.1.aar\1ffb6c5cbe5bc89928e15d89cbc3a2e9\AndroidManifest.xml:17:1-22:12
MERGED from [com.android.support:animated-vector-drawable:27.1.1] C:\Users\Narges\.gradle\caches\transforms-1\files-1.1\animated-vector-drawable-27.1.1.aar\26dde5057ab4eca3f9e84cda5499c338\AndroidManifest.xml:17:1-22:12
MERGED from [com.android.support:support-core-ui:27.1.1] C:\Users\Narges\.gradle\caches\transforms-1\files-1.1\support-core-ui-27.1.1.aar\93e287007f56a566ea130efcb526a77a\AndroidManifest.xml:17:1-22:12
MERGED from [com.android.support:support-core-utils:27.1.1] C:\Users\Narges\.gradle\caches\transforms-1\files-1.1\support-core-utils-27.1.1.aar\9906d4c0e5fcc4dca49d34c162023bf5\AndroidManifest.xml:17:1-22:12
MERGED from [com.android.support:support-vector-drawable:27.1.1] C:\Users\Narges\.gradle\caches\transforms-1\files-1.1\support-vector-drawable-27.1.1.aar\a2ee8e42fdc1d24d7b88e57285eb5e07\AndroidManifest.xml:17:1-22:12
MERGED from [com.android.support:support-compat:27.1.1] C:\Users\Narges\.gradle\caches\transforms-1\files-1.1\support-compat-27.1.1.aar\145b725a59ba630b6215e62dd22f9b29\AndroidManifest.xml:17:1-22:12
MERGED from [com.facebook.fresco:fresco:1.10.0] C:\Users\Narges\.gradle\caches\transforms-1\files-1.1\fresco-1.10.0.aar\e795c98acbc1433ca9f4081d022fab80\AndroidManifest.xml:2:1-9:12
MERGED from [com.facebook.fresco:imagepipeline-okhttp3:1.10.0] C:\Users\Narges\.gradle\caches\transforms-1\files-1.1\imagepipeline-okhttp3-1.10.0.aar\abbd2a6a376b8246075c31779cdf2687\AndroidManifest.xml:2:1-9:12
MERGED from [com.facebook.fresco:drawee:1.10.0] C:\Users\Narges\.gradle\caches\transforms-1\files-1.1\drawee-1.10.0.aar\ab6b83587f83730067e680e9955d7b71\AndroidManifest.xml:2:1-9:12
MERGED from [com.facebook.fresco:imagepipeline:1.10.0] C:\Users\Narges\.gradle\caches\transforms-1\files-1.1\imagepipeline-1.10.0.aar\a56417e2d626fff403491754a8057a10\AndroidManifest.xml:2:1-9:12
MERGED from [com.facebook.fresco:imagepipeline-base:1.10.0] C:\Users\Narges\.gradle\caches\transforms-1\files-1.1\imagepipeline-base-1.10.0.aar\a4fe815d514eb146ffed9f2283d7456b\AndroidManifest.xml:2:1-9:12
MERGED from [com.facebook.soloader:soloader:0.5.1] C:\Users\Narges\.gradle\caches\transforms-1\files-1.1\soloader-0.5.1.aar\8ff3a13c1f199ad003d3855763d06c54\AndroidManifest.xml:2:1-13:12
MERGED from [org.webkit:android-jsc:r174650] C:\Users\Narges\.gradle\caches\transforms-1\files-1.1\android-jsc-r174650.aar\b94021f1b63913327e2ec5e25a0df5fb\AndroidManifest.xml:1:1-3:12
MERGED from [android.arch.lifecycle:livedata-core:1.1.0] C:\Users\Narges\.gradle\caches\transforms-1\files-1.1\livedata-core-1.1.0.aar\18e78e360694dbfb8a8ca46f47a34467\AndroidManifest.xml:17:1-22:12
MERGED from [android.arch.lifecycle:viewmodel:1.1.0] C:\Users\Narges\.gradle\caches\transforms-1\files-1.1\viewmodel-1.1.0.aar\dfd94b2c93aef3080615c5838f99b97e\AndroidManifest.xml:17:1-22:12
MERGED from [com.facebook.fresco:fbcore:1.10.0] C:\Users\Narges\.gradle\caches\transforms-1\files-1.1\fbcore-1.10.0.aar\4e3a0bf3443f22d8cda904fd94c2be34\AndroidManifest.xml:2:1-9:12
MERGED from [android.arch.lifecycle:runtime:1.1.0] C:\Users\Narges\.gradle\caches\transforms-1\files-1.1\runtime-1.1.0.aar\25046ddf595bd7dc9c5e2ecb633dec9a\AndroidManifest.xml:17:1-22:12
MERGED from [android.arch.core:runtime:1.1.0] C:\Users\Narges\.gradle\caches\transforms-1\files-1.1\runtime-1.1.0.aar\808101d18c8d0c9416894c73980f1de9\AndroidManifest.xml:17:1-22:12
INJECTED from G:\Projects\Android\react-native_frame_work\frame1\android\app\src\main\AndroidManifest.xml:1:1-26:12
INJECTED from G:\Projects\Android\react-native_frame_work\frame1\android\app\src\main\AndroidManifest.xml:1:1-26:12
INJECTED from G:\Projects\Android\react-native_frame_work\frame1\android\app\src\main\AndroidManifest.xml:1:1-26:12
	package
		ADDED from G:\Projects\Android\react-native_frame_work\frame1\android\app\src\main\AndroidManifest.xml:2:5-25
		INJECTED from G:\Projects\Android\react-native_frame_work\frame1\android\app\src\main\AndroidManifest.xml
		INJECTED from G:\Projects\Android\react-native_frame_work\frame1\android\app\src\main\AndroidManifest.xml
	android:versionName
		INJECTED from G:\Projects\Android\react-native_frame_work\frame1\android\app\src\main\AndroidManifest.xml
		ADDED from G:\Projects\Android\react-native_frame_work\frame1\android\app\src\main\AndroidManifest.xml:1:1-26:12
		INJECTED from G:\Projects\Android\react-native_frame_work\frame1\android\app\src\main\AndroidManifest.xml
	android:versionCode
		INJECTED from G:\Projects\Android\react-native_frame_work\frame1\android\app\src\main\AndroidManifest.xml
		ADDED from G:\Projects\Android\react-native_frame_work\frame1\android\app\src\main\AndroidManifest.xml:1:1-26:12
		INJECTED from G:\Projects\Android\react-native_frame_work\frame1\android\app\src\main\AndroidManifest.xml
	xmlns:android
		ADDED from G:\Projects\Android\react-native_frame_work\frame1\android\app\src\main\AndroidManifest.xml:1:11-69
uses-permission#android.permission.INTERNET
ADDED from G:\Projects\Android\react-native_frame_work\frame1\android\app\src\main\AndroidManifest.xml:4:5-67
	android:name
		ADDED from G:\Projects\Android\react-native_frame_work\frame1\android\app\src\main\AndroidManifest.xml:4:22-64
uses-permission#android.permission.SYSTEM_ALERT_WINDOW
ADDED from G:\Projects\Android\react-native_frame_work\frame1\android\app\src\main\AndroidManifest.xml:5:5-77
MERGED from [com.facebook.react:react-native:0.57.7] C:\Users\Narges\.gradle\caches\transforms-1\files-1.1\react-native-0.57.7.aar\82283e933d96cd97ecd25c44d5140753\AndroidManifest.xml:11:5-78
MERGED from [com.facebook.react:react-native:0.57.7] C:\Users\Narges\.gradle\caches\transforms-1\files-1.1\react-native-0.57.7.aar\82283e933d96cd97ecd25c44d5140753\AndroidManifest.xml:11:5-78
	android:name
		ADDED from G:\Projects\Android\react-native_frame_work\frame1\android\app\src\main\AndroidManifest.xml:5:22-75
application
ADDED from G:\Projects\Android\react-native_frame_work\frame1\android\app\src\main\AndroidManifest.xml:7:5-24:19
MERGED from [com.facebook.react:react-native:0.57.7] C:\Users\Narges\.gradle\caches\transforms-1\files-1.1\react-native-0.57.7.aar\82283e933d96cd97ecd25c44d5140753\AndroidManifest.xml:13:5-20
MERGED from [com.facebook.react:react-native:0.57.7] C:\Users\Narges\.gradle\caches\transforms-1\files-1.1\react-native-0.57.7.aar\82283e933d96cd97ecd25c44d5140753\AndroidManifest.xml:13:5-20
MERGED from [com.facebook.soloader:soloader:0.5.1] C:\Users\Narges\.gradle\caches\transforms-1\files-1.1\soloader-0.5.1.aar\8ff3a13c1f199ad003d3855763d06c54\AndroidManifest.xml:11:5-20
MERGED from [com.facebook.soloader:soloader:0.5.1] C:\Users\Narges\.gradle\caches\transforms-1\files-1.1\soloader-0.5.1.aar\8ff3a13c1f199ad003d3855763d06c54\AndroidManifest.xml:11:5-20
MERGED from [org.webkit:android-jsc:r174650] C:\Users\Narges\.gradle\caches\transforms-1\files-1.1\android-jsc-r174650.aar\b94021f1b63913327e2ec5e25a0df5fb\AndroidManifest.xml:2:3-17
MERGED from [org.webkit:android-jsc:r174650] C:\Users\Narges\.gradle\caches\transforms-1\files-1.1\android-jsc-r174650.aar\b94021f1b63913327e2ec5e25a0df5fb\AndroidManifest.xml:2:3-17
	android:label
		ADDED from G:\Projects\Android\react-native_frame_work\frame1\android\app\src\main\AndroidManifest.xml:9:7-39
	android:icon
		ADDED from G:\Projects\Android\react-native_frame_work\frame1\android\app\src\main\AndroidManifest.xml:10:7-41
	android:allowBackup
		ADDED from G:\Projects\Android\react-native_frame_work\frame1\android\app\src\main\AndroidManifest.xml:11:7-34
	android:theme
		ADDED from G:\Projects\Android\react-native_frame_work\frame1\android\app\src\main\AndroidManifest.xml:12:7-38
	android:name
		ADDED from G:\Projects\Android\react-native_frame_work\frame1\android\app\src\main\AndroidManifest.xml:8:7-38
activity#com.frame1.MainActivity
ADDED from G:\Projects\Android\react-native_frame_work\frame1\android\app\src\main\AndroidManifest.xml:13:7-22:18
	android:label
		ADDED from G:\Projects\Android\react-native_frame_work\frame1\android\app\src\main\AndroidManifest.xml:15:9-41
	android:windowSoftInputMode
		ADDED from G:\Projects\Android\react-native_frame_work\frame1\android\app\src\main\AndroidManifest.xml:17:9-51
	android:configChanges
		ADDED from G:\Projects\Android\react-native_frame_work\frame1\android\app\src\main\AndroidManifest.xml:16:9-79
	android:name
		ADDED from G:\Projects\Android\react-native_frame_work\frame1\android\app\src\main\AndroidManifest.xml:14:9-37
intent-filter#action:name:android.intent.action.MAIN+category:name:android.intent.category.LAUNCHER
ADDED from G:\Projects\Android\react-native_frame_work\frame1\android\app\src\main\AndroidManifest.xml:18:9-21:25
action#android.intent.action.MAIN
ADDED from G:\Projects\Android\react-native_frame_work\frame1\android\app\src\main\AndroidManifest.xml:19:13-65
	android:name
		ADDED from G:\Projects\Android\react-native_frame_work\frame1\android\app\src\main\AndroidManifest.xml:19:21-62
category#android.intent.category.LAUNCHER
ADDED from G:\Projects\Android\react-native_frame_work\frame1\android\app\src\main\AndroidManifest.xml:20:13-73
	android:name
		ADDED from G:\Projects\Android\react-native_frame_work\frame1\android\app\src\main\AndroidManifest.xml:20:23-70
activity#com.facebook.react.devsupport.DevSettingsActivity
ADDED from G:\Projects\Android\react-native_frame_work\frame1\android\app\src\main\AndroidManifest.xml:23:7-84
	android:name
		ADDED from G:\Projects\Android\react-native_frame_work\frame1\android\app\src\main\AndroidManifest.xml:23:17-81
uses-sdk
INJECTED from G:\Projects\Android\react-native_frame_work\frame1\android\app\src\main\AndroidManifest.xml reason: use-sdk injection requested
INJECTED from G:\Projects\Android\react-native_frame_work\frame1\android\app\src\main\AndroidManifest.xml
INJECTED from G:\Projects\Android\react-native_frame_work\frame1\android\app\src\main\AndroidManifest.xml
MERGED from [com.facebook.react:react-native:0.57.7] C:\Users\Narges\.gradle\caches\transforms-1\files-1.1\react-native-0.57.7.aar\82283e933d96cd97ecd25c44d5140753\AndroidManifest.xml:7:5-9:41
MERGED from [com.facebook.react:react-native:0.57.7] C:\Users\Narges\.gradle\caches\transforms-1\files-1.1\react-native-0.57.7.aar\82283e933d96cd97ecd25c44d5140753\AndroidManifest.xml:7:5-9:41
MERGED from [com.android.support:appcompat-v7:27.1.1] C:\Users\Narges\.gradle\caches\transforms-1\files-1.1\appcompat-v7-27.1.1.aar\608cbbffe669b67d1c91721c0a253cd1\AndroidManifest.xml:20:5-44
MERGED from [com.android.support:appcompat-v7:27.1.1] C:\Users\Narges\.gradle\caches\transforms-1\files-1.1\appcompat-v7-27.1.1.aar\608cbbffe669b67d1c91721c0a253cd1\AndroidManifest.xml:20:5-44
MERGED from [com.android.support:support-fragment:27.1.1] C:\Users\Narges\.gradle\caches\transforms-1\files-1.1\support-fragment-27.1.1.aar\1ffb6c5cbe5bc89928e15d89cbc3a2e9\AndroidManifest.xml:20:5-44
MERGED from [com.android.support:support-fragment:27.1.1] C:\Users\Narges\.gradle\caches\transforms-1\files-1.1\support-fragment-27.1.1.aar\1ffb6c5cbe5bc89928e15d89cbc3a2e9\AndroidManifest.xml:20:5-44
MERGED from [com.android.support:animated-vector-drawable:27.1.1] C:\Users\Narges\.gradle\caches\transforms-1\files-1.1\animated-vector-drawable-27.1.1.aar\26dde5057ab4eca3f9e84cda5499c338\AndroidManifest.xml:20:5-44
MERGED from [com.android.support:animated-vector-drawable:27.1.1] C:\Users\Narges\.gradle\caches\transforms-1\files-1.1\animated-vector-drawable-27.1.1.aar\26dde5057ab4eca3f9e84cda5499c338\AndroidManifest.xml:20:5-44
MERGED from [com.android.support:support-core-ui:27.1.1] C:\Users\Narges\.gradle\caches\transforms-1\files-1.1\support-core-ui-27.1.1.aar\93e287007f56a566ea130efcb526a77a\AndroidManifest.xml:20:5-44
MERGED from [com.android.support:support-core-ui:27.1.1] C:\Users\Narges\.gradle\caches\transforms-1\files-1.1\support-core-ui-27.1.1.aar\93e287007f56a566ea130efcb526a77a\AndroidManifest.xml:20:5-44
MERGED from [com.android.support:support-core-utils:27.1.1] C:\Users\Narges\.gradle\caches\transforms-1\files-1.1\support-core-utils-27.1.1.aar\9906d4c0e5fcc4dca49d34c162023bf5\AndroidManifest.xml:20:5-44
MERGED from [com.android.support:support-core-utils:27.1.1] C:\Users\Narges\.gradle\caches\transforms-1\files-1.1\support-core-utils-27.1.1.aar\9906d4c0e5fcc4dca49d34c162023bf5\AndroidManifest.xml:20:5-44
MERGED from [com.android.support:support-vector-drawable:27.1.1] C:\Users\Narges\.gradle\caches\transforms-1\files-1.1\support-vector-drawable-27.1.1.aar\a2ee8e42fdc1d24d7b88e57285eb5e07\AndroidManifest.xml:20:5-44
MERGED from [com.android.support:support-vector-drawable:27.1.1] C:\Users\Narges\.gradle\caches\transforms-1\files-1.1\support-vector-drawable-27.1.1.aar\a2ee8e42fdc1d24d7b88e57285eb5e07\AndroidManifest.xml:20:5-44
MERGED from [com.android.support:support-compat:27.1.1] C:\Users\Narges\.gradle\caches\transforms-1\files-1.1\support-compat-27.1.1.aar\145b725a59ba630b6215e62dd22f9b29\AndroidManifest.xml:20:5-44
MERGED from [com.android.support:support-compat:27.1.1] C:\Users\Narges\.gradle\caches\transforms-1\files-1.1\support-compat-27.1.1.aar\145b725a59ba630b6215e62dd22f9b29\AndroidManifest.xml:20:5-44
MERGED from [com.facebook.fresco:fresco:1.10.0] C:\Users\Narges\.gradle\caches\transforms-1\files-1.1\fresco-1.10.0.aar\e795c98acbc1433ca9f4081d022fab80\AndroidManifest.xml:5:5-7:41
MERGED from [com.facebook.fresco:fresco:1.10.0] C:\Users\Narges\.gradle\caches\transforms-1\files-1.1\fresco-1.10.0.aar\e795c98acbc1433ca9f4081d022fab80\AndroidManifest.xml:5:5-7:41
MERGED from [com.facebook.fresco:imagepipeline-okhttp3:1.10.0] C:\Users\Narges\.gradle\caches\transforms-1\files-1.1\imagepipeline-okhttp3-1.10.0.aar\abbd2a6a376b8246075c31779cdf2687\AndroidManifest.xml:5:5-7:41
MERGED from [com.facebook.fresco:imagepipeline-okhttp3:1.10.0] C:\Users\Narges\.gradle\caches\transforms-1\files-1.1\imagepipeline-okhttp3-1.10.0.aar\abbd2a6a376b8246075c31779cdf2687\AndroidManifest.xml:5:5-7:41
MERGED from [com.facebook.fresco:drawee:1.10.0] C:\Users\Narges\.gradle\caches\transforms-1\files-1.1\drawee-1.10.0.aar\ab6b83587f83730067e680e9955d7b71\AndroidManifest.xml:5:5-7:41
MERGED from [com.facebook.fresco:drawee:1.10.0] C:\Users\Narges\.gradle\caches\transforms-1\files-1.1\drawee-1.10.0.aar\ab6b83587f83730067e680e9955d7b71\AndroidManifest.xml:5:5-7:41
MERGED from [com.facebook.fresco:imagepipeline:1.10.0] C:\Users\Narges\.gradle\caches\transforms-1\files-1.1\imagepipeline-1.10.0.aar\a56417e2d626fff403491754a8057a10\AndroidManifest.xml:5:5-7:41
MERGED from [com.facebook.fresco:imagepipeline:1.10.0] C:\Users\Narges\.gradle\caches\transforms-1\files-1.1\imagepipeline-1.10.0.aar\a56417e2d626fff403491754a8057a10\AndroidManifest.xml:5:5-7:41
MERGED from [com.facebook.fresco:imagepipeline-base:1.10.0] C:\Users\Narges\.gradle\caches\transforms-1\files-1.1\imagepipeline-base-1.10.0.aar\a4fe815d514eb146ffed9f2283d7456b\AndroidManifest.xml:5:5-7:41
MERGED from [com.facebook.fresco:imagepipeline-base:1.10.0] C:\Users\Narges\.gradle\caches\transforms-1\files-1.1\imagepipeline-base-1.10.0.aar\a4fe815d514eb146ffed9f2283d7456b\AndroidManifest.xml:5:5-7:41
MERGED from [com.facebook.soloader:soloader:0.5.1] C:\Users\Narges\.gradle\caches\transforms-1\files-1.1\soloader-0.5.1.aar\8ff3a13c1f199ad003d3855763d06c54\AndroidManifest.xml:7:5-9:41
MERGED from [com.facebook.soloader:soloader:0.5.1] C:\Users\Narges\.gradle\caches\transforms-1\files-1.1\soloader-0.5.1.aar\8ff3a13c1f199ad003d3855763d06c54\AndroidManifest.xml:7:5-9:41
MERGED from [android.arch.lifecycle:livedata-core:1.1.0] C:\Users\Narges\.gradle\caches\transforms-1\files-1.1\livedata-core-1.1.0.aar\18e78e360694dbfb8a8ca46f47a34467\AndroidManifest.xml:20:5-44
MERGED from [android.arch.lifecycle:livedata-core:1.1.0] C:\Users\Narges\.gradle\caches\transforms-1\files-1.1\livedata-core-1.1.0.aar\18e78e360694dbfb8a8ca46f47a34467\AndroidManifest.xml:20:5-44
MERGED from [android.arch.lifecycle:viewmodel:1.1.0] C:\Users\Narges\.gradle\caches\transforms-1\files-1.1\viewmodel-1.1.0.aar\dfd94b2c93aef3080615c5838f99b97e\AndroidManifest.xml:20:5-44
MERGED from [android.arch.lifecycle:viewmodel:1.1.0] C:\Users\Narges\.gradle\caches\transforms-1\files-1.1\viewmodel-1.1.0.aar\dfd94b2c93aef3080615c5838f99b97e\AndroidManifest.xml:20:5-44
MERGED from [com.facebook.fresco:fbcore:1.10.0] C:\Users\Narges\.gradle\caches\transforms-1\files-1.1\fbcore-1.10.0.aar\4e3a0bf3443f22d8cda904fd94c2be34\AndroidManifest.xml:5:5-7:41
MERGED from [com.facebook.fresco:fbcore:1.10.0] C:\Users\Narges\.gradle\caches\transforms-1\files-1.1\fbcore-1.10.0.aar\4e3a0bf3443f22d8cda904fd94c2be34\AndroidManifest.xml:5:5-7:41
MERGED from [android.arch.lifecycle:runtime:1.1.0] C:\Users\Narges\.gradle\caches\transforms-1\files-1.1\runtime-1.1.0.aar\25046ddf595bd7dc9c5e2ecb633dec9a\AndroidManifest.xml:20:5-44
MERGED from [android.arch.lifecycle:runtime:1.1.0] C:\Users\Narges\.gradle\caches\transforms-1\files-1.1\runtime-1.1.0.aar\25046ddf595bd7dc9c5e2ecb633dec9a\AndroidManifest.xml:20:5-44
MERGED from [android.arch.core:runtime:1.1.0] C:\Users\Narges\.gradle\caches\transforms-1\files-1.1\runtime-1.1.0.aar\808101d18c8d0c9416894c73980f1de9\AndroidManifest.xml:20:5-44
MERGED from [android.arch.core:runtime:1.1.0] C:\Users\Narges\.gradle\caches\transforms-1\files-1.1\runtime-1.1.0.aar\808101d18c8d0c9416894c73980f1de9\AndroidManifest.xml:20:5-44
INJECTED from G:\Projects\Android\react-native_frame_work\frame1\android\app\src\main\AndroidManifest.xml
INJECTED from G:\Projects\Android\react-native_frame_work\frame1\android\app\src\main\AndroidManifest.xml
	android:targetSdkVersion
		INJECTED from G:\Projects\Android\react-native_frame_work\frame1\android\app\src\main\AndroidManifest.xml
		ADDED from G:\Projects\Android\react-native_frame_work\frame1\android\app\src\main\AndroidManifest.xml
		INJECTED from G:\Projects\Android\react-native_frame_work\frame1\android\app\src\main\AndroidManifest.xml
	android:minSdkVersion
		INJECTED from G:\Projects\Android\react-native_frame_work\frame1\android\app\src\main\AndroidManifest.xml
		ADDED from G:\Projects\Android\react-native_frame_work\frame1\android\app\src\main\AndroidManifest.xml
		INJECTED from G:\Projects\Android\react-native_frame_work\frame1\android\app\src\main\AndroidManifest.xml
uses-permission#android.permission.WRITE_EXTERNAL_STORAGE
IMPLIED from G:\Projects\Android\react-native_frame_work\frame1\android\app\src\main\AndroidManifest.xml:1:1-26:12 reason: org.webkit.android_jsc has a targetSdkVersion < 4
uses-permission#android.permission.READ_PHONE_STATE
IMPLIED from G:\Projects\Android\react-native_frame_work\frame1\android\app\src\main\AndroidManifest.xml:1:1-26:12 reason: org.webkit.android_jsc has a targetSdkVersion < 4
uses-permission#android.permission.READ_EXTERNAL_STORAGE
IMPLIED from G:\Projects\Android\react-native_frame_work\frame1\android\app\src\main\AndroidManifest.xml:1:1-26:12 reason: org.webkit.android_jsc requested WRITE_EXTERNAL_STORAGE
